Predict your age from you name
…
p_name_sex <- baby_names_joint %>%
  group_by(name, sex) %>%
  summarise(prop = sum(prop))

Calculate, \[
p(age | name, sex) = \frac{p(age, name, sex)}{p(name, sex)}
\]

inner_join(baby_names_joint, 
           select(p_name_sex, name, sex, p_name_sex = prop),
           by = c("name", "sex")) %>%
  mutate(p_age = prop / p_name_sex)

## # A tibble: 1,806,656 x 10
##     year sex   name         n  prop   age p_alive n_alive p_name_sex p_age
##    <dbl> <chr> <chr>    <dbl> <dbl> <dbl>   <dbl>   <dbl>      <dbl> <dbl>
##  1 1900. F     Mary    16707.    0.  115.      0.      0.   0.00782     0.
##  2 1900. F     Helen    6343.    0.  115.      0.      0.   0.00115     0.
##  3 1900. F     Anna     6114.    0.  115.      0.      0.   0.00165     0.
##  4 1900. F     Margar  5304.    0.  115.      0.      0.   0.00216     0.
##  5 1900. F     Ruth     4765.    0.  115.      0.      0.   0.00108     0.
##  6 1900. F     Elizab  4096.    0.  115.      0.      0.   0.00421     0.
##  7 1900. F     Floren  3920.    0.  115.      0.      0.   0.000260    0.
##  8 1900. F     Ethel    3896.    0.  115.      0.      0.   0.000222    0.
##  9 1900. F     Marie    3856.    0.  115.      0.      0.   0.000825    0.
## 10 1900. F     Lillian  3414.    0.  115.      0.      0.   0.000681    0.
## # ... with 1,806,646 more rows
…
